Provides a simple listing of cities within the platform. — aq_cities â€¢ ropenaq
…
 the number of results found on the platform for the query ("found")

    and a timestamp data.frame (dplyr "tbl_df") with the query time and the last time at which the data was modified on the platform.

    Details

    For queries involving a city argument,
the URL-encoded name of the city (as in cityURL),
not its name, should be used.

      Examples

cities <- aq_cities(country = "IN")
cities
#> # A tibble: 36 × 5
#>          city country locations  count    cityURL
#>         <chr>   <chr>     <int>  <int>      <chr>
#> 1        Agra      IN         1  39812       Agra
#> 2   Ahmedabad      IN         1  35026  Ahmedabad
#> 3    Amritsar      IN         1   3605   Amritsar
#> 4  Aurangabad      IN         1  49392 Aurangabad
#> 5  Barddhaman      IN         3   2470 Barddhaman
#> 6   Bengaluru      IN         5 175125  Bengaluru
#> 7  Chandrapur      IN         2  99586 Chandrapur
#> 8     Chennai      IN         4 113327    Chennai
#> 9    Chittoor      IN         1   2013   Chittoor
#> 10      Delhi      IN        16 547434      Delhi
#> # ... with 26 more rows
…
