Provides a simple listing of countries within the platform. — aq_countries â€¢ ropenaq
…
 the number of results found on the platform for the query ("found")

    and a timestamp data.frame (dplyr "tbl_df") with the query time and the last time at which the data was modified on the platform.

    Details

    For queries involving a country argument,
the code of the country, not its name, should be used.

      Examples

countries <- aq_countries()
countries
#> # A tibble: 46 × 5
#>                      name  code cities locations   count
#> *                   <chr> <chr>  <int>     <int>   <int>
#> 1               Argentina    AR      1         1    2448
#> 2                 Austria    AT    370       370  149732
#> 3               Australia    AU     56        56 1217398
#> 4  Bosnia and Herzegovina    BA     11        11  305480
#> 5              Bangladesh    BD      2         2    9658
#> 6                 Belgium    BE     98        98  200781
#> 7                 Bahrain    BH      1         1    1913
#> 8                  Brazil    BR    144       144 1886225
#> 9                  Canada    CA    157       157 1147776
#> 10                  Chile    CL    158       158 2767623
#> # ... with 36 more rows
…
