Providing data about distinct measurement locations. — aq_locations â€¢ ropenaq
…
    For queries involving a city or location argument,
the URL-encoded name of the city/location (as in cityURL/locationURL),
not its name, should be used.
 You can query any nested combination of country/location/city (level 1, 2 and 3),
 with only one value for each argument.
  If you write inconsistent combination such as city="Paris" and country="IN", an error message will be returned.
  If you write city="Delhi", you do not need to write the code of the country, unless
  one day there is a city with the same name in another country.

      Examples

india_locations <- aq_locations(country='IN')
india_locations
#> # A tibble: 91 × 19
#>                                       location      city country  count
#>                                          <chr>     <chr>   <chr>  <int>
#> 1                        AAQMS Karve Road Pune      Pune      IN  75553
#> 2                            Alandur Bus Depot   Chennai      IN  28930
#> 3                                  Anand Vihar     Delhi      IN  61947
#> 4                                  AP Tirumala  Chittoor      IN   3172
#> 5                                Ardhali Bazar  Varanasi      IN 107235
#> 6                     Bollaram Industrial Area Hyderabad      IN     25
#> 7  Bollaram Industrial Area, Hyderabad - TSPCB Hyderabad      IN   4225
#> 8                                   BTM Layout Bengaluru      IN  54696
#> 9                        BWSSB Kadabesanahalli Bengaluru      IN  31108
#> 10                              Central School   Lucknow      IN  43857
#> # ... with 81 more rows, and 15 more variables: sourceNames <list>,
#> #   lastUpdated <dttm>, firstUpdated <dttm>, sourceName <chr>, latitude <dbl>,
#> #   longitude <dbl>, pm25 <lgl>, pm10 <lgl>, no2 <lgl>, so2 <lgl>, o3 <lgl>,
#> #   co <lgl>, bc <lgl>, cityURL <chr>, locationURL <chr>
…
